module granola

go 1.18

require (
	github.com/gin-contrib/multitemplate v0.0.0-20220829131020-8c2a8441bc2b
	github.com/gin-contrib/sessions v0.0.4
	github.com/gin-gonic/gin v1.8.2
	github.com/spf13/viper v1.14.0
	github.com/stretchr/testify v1.8.1
	golang.org/x/crypto v0.5.0
	gorm.io/driver/sqlite v1.3.6
	gorm.io/gorm v1.23.8
)

require github.com/yuin/goldmark v1.5.4

require (
	github.com/dustin/go-humanize v1.0.1 // indirect
	github.com/gosimple/slug v1.13.1 // indirect
	github.com/gosimple/unidecode v1.0.1 // indirect
)

require (
	github.com/bu/gin-method-override v0.0.0-20210107045130-0be2f37312dc
	github.com/davecgh/go-spew v1.1.1 // indirect
	github.com/fsnotify/fsnotify v1.6.0 // indirect
	github.com/gin-contrib/sse v0.1.0 // indirect
	github.com/go-playground/locales v0.14.1
	github.com/go-playground/universal-translator v0.18.0
	github.com/go-playground/validator/v10 v10.11.1
	github.com/goccy/go-json v0.10.0 // indirect
	github.com/gorilla/context v1.1.1 // indirect
	github.com/gorilla/securecookie v1.1.1 // indirect
	github.com/gorilla/sessions v1.2.1 // indirect
	github.com/hashicorp/hcl v1.0.0 // indirect
	github.com/jinzhu/inflection v1.0.0 // indirect
	github.com/jinzhu/now v1.1.5 // indirect
	github.com/json-iterator/go v1.1.12 // indirect
	github.com/leodido/go-urn v1.2.1 // indirect
	github.com/magiconair/properties v1.8.7 // indirect
	github.com/mattn/go-isatty v0.0.17 // indirect
	github.com/mattn/go-sqlite3 v1.14.15 // indirect
	github.com/mitchellh/mapstructure v1.5.0
	github.com/modern-go/concurrent v0.0.0-20180306012644-bacd9c7ef1dd // indirect
	github.com/modern-go/reflect2 v1.0.2 // indirect
	github.com/pelletier/go-toml v1.9.5 // indirect
	github.com/pelletier/go-toml/v2 v2.0.6 // indirect
	github.com/pmezard/go-difflib v1.0.0 // indirect
	github.com/spf13/afero v1.9.3 // indirect
	github.com/spf13/cast v1.5.0
	github.com/spf13/jwalterweatherman v1.1.0 // indirect
	github.com/spf13/pflag v1.0.5 // indirect
	github.com/subosito/gotenv v1.4.2 // indirect
	github.com/ugorji/go/codec v1.2.8 // indirect
	golang.org/x/net v0.5.0 // indirect
	golang.org/x/sys v0.4.0 // indirect
	golang.org/x/text v0.6.0 // indirect
	google.golang.org/protobuf v1.28.1 // indirect
	gopkg.in/ini.v1 v1.67.0 // indirect
	gopkg.in/yaml.v2 v2.4.0 // indirect
	gopkg.in/yaml.v3 v3.0.1 // indirect
)
